…
```r
head(word_corr, 30) 
```

```
## # A tibble: 30 x 3
##    item1     item2   correlation
##    <chr>     <chr>         <dbl>
##  1 round     feels         0.854
##  2 feels     round         0.854
##  3 careful   heard         0.843
##  4 dreams    living        0.843
##  5 heard     careful       0.843
##  6 living    dreams        0.843
##  7 feeling   change        0.843
##  8 change    feeling       0.843
##  9 leave     dreams        0.822
## 10 christmas dreams        0.822
## # ... with 20 more rows
```
…
