Lyrics
…
word_corr<- section_U2 %>%group_by(word) %>%
  filter(n() >= 11) %>%
  pairwise_cor(word, section, sort = TRUE)
head(word_corr, 30)

## # A tibble: 30 x 3
##    item1   item2   correlation
##    <chr>   <chr>         <dbl>
##  1 close   stand         1    
##  2 stand   close         1    
##  3 leave   alright       1    
##  4 taking  smile         1    
##  5 alright leave         1    
##  6 smile   taking        1    
##  7 waiting times         1    
##  8 times   waiting       1    
##  9 night   tonight       1.000
## 10 gonna   tonight       1.000
## # ... with 20 more rows
…
