Lyrics
…
#  summarise(num_words = n()) %>%
#  arrange(desc(num_words)) 

word_pairs <- unnest_tidy %>% pairwise_count(word, artist, sort = TRUE)

(word_cor <- unnest_tidy %>%
    group_by(word) %>%
    filter(n() >= 20) %>%
    pairwise_cor(word, song) %>%
    filter(!is.na(correlation)))

## # A tibble: 8,113,952 x 3
##    item1 item2   correlation
##    <chr> <chr>         <dbl>
##  1 night explain    0.00565 
##  2 wrong explain    0.0363  
##  3 baby  explain    0.0118  
##  4 cross explain    0.000245
##  5 heart explain    0.0294  
##  6 hope  explain    0.0220  
##  7 die   explain    0.00840 
##  8 lie   explain    0.0355  
##  9 mmm   explain    0.0131  
## 10 talk  explain    0.0147  
## # ... with 8,113,942 more rows

word_cor %>% filter(item1 == "star") %>% arrange(desc(correlation))

## # A tibble: 2,848 x 3
##    item1 item2     correlation
##    <chr> <chr>           <dbl>
##  1 star  shooting       0.151 
##  2 star  bright         0.150 
##  3 star  hollywood      0.136 
##  4 star  movie          0.123 
##  5 star  shining        0.108 
##  6 star  shine          0.103 
##  7 star  guitar         0.0987
##  8 star  bar            0.0923
##  9 star  stars          0.0829
## 10 star  visions        0.0775
## # ... with 2,838 more rows
…
